{
  "images" : [
    {
      "idiom" : "universal",
      "scale" : "1x",
      "filename" : "tram-w.png"
    },
    {
      "idiom" : "universal",
      "scale" : "2x",
      "filename" : "tram-w@2x.png"
    },
    {
      "idiom" : "universal",
      "scale" : "3x",
      "filename" : "tram-w@3x.png"
    }
  ],
  "info" : {
    "version" : 1,
    "author" : "xcode"
  }
}