{
  "images" : [
    {
      "idiom" : "iphone",
      "filename" : "splash_logos_without_iphone4.png",
      "scale" : "1x"
    },
    {
      "idiom" : "iphone",
      "subtype" : "retina4",
      "scale" : "1x"
    },
    {
      "idiom" : "iphone",
      "filename" : "splash_logos_without_iphone4@2x.png",
      "scale" : "2x"
    },
    {
      "idiom" : "iphone",
      "filename" : "splash_logos_without@2x.png",
      "subtype" : "retina4",
      "scale" : "2x"
    },
    {
      "idiom" : "iphone",
      "scale" : "3x"
    },
    {
      "idiom" : "iphone",
      "subtype" : "retina4",
      "scale" : "3x"
    }
  ],
  "info" : {
    "version" : 1,
    "author" : "xcode"
  }
}